Id,Nom,Prenom,Site,Equipe
1,Riviere,Paul,Paris,Developpement
2,Simon,Anthony,Paris,Developpement
3,Bia,Stella,Paris,Developpement
4,Milka,Steph,Paris,Production
5,Obiang,Nicolas,Paris,Support
6,Shu,Yuri,Nantes,Support
7,Dupont,Melanie,Nantes,Support
8,Leclerc,Lucie,Rennes,Developpement
9,Riviere,Pauline,Rennes,Developpement
10,Wuxian,We,Rennes,Developpement
11,Lan,Wang,Rennes,Developpement
12,Ela,Annass,Rennes,Production
13,Ping,Pink,Rennes,Support
14,Mu,Diana,Nantes,Developpement
15,Dao,Mo,Nantes,Developpement
16,Vinci,Virginie,Nantes,Developpement
17,Fon,Anne,Nantes,Production
18,Suzian,Dev,Paris,Production
19,Damour,Lolita,Paris,Production
20,Muller,Max,Nantes,Support
